Quantium Virtual Internship - Retail Strategy and Analytics - Task 1
…
  num_distinct_days
1               364

Looks like there is one missing date

# Count the number of transactions per date
transaction_count_per_date <- combinedData %>%
  group_by(date) %>%
  summarise(transaction_count = n())

# View the result
transaction_count_per_date

# A tibble: 364 × 2
   date       transaction_count
   <date>                 <int>
 1 2018-07-01               663
 2 2018-07-02               650
 3 2018-07-03               674
 4 2018-07-04               669
 5 2018-07-05               660
 6 2018-07-06               711
 7 2018-07-07               695
 8 2018-07-08               653
 9 2018-07-09               692
10 2018-07-10               650
# ℹ 354 more rows
…
Zooming the chart to see the specific dates - December

#filter out dates in dec
start_date <- as.Date("2018-12-01")
end_date <- as.Date("2018-12-31")
transaction_count_per_date_filtered = filter(transaction_count_per_date, date >= start_date & date <= end_date)

transaction_count_per_date_filtered

# A tibble: 30 × 2
   date       transaction_count
   <date>                 <int>
 1 2018-12-01               675
 2 2018-12-02               655
 3 2018-12-03               677
 4 2018-12-04               666
 5 2018-12-05               660
 6 2018-12-06               645
 7 2018-12-07               672
 8 2018-12-08               622
 9 2018-12-09               659
10 2018-12-10               664
# ℹ 20 more rows
…
Understanding sales by lifestyle and premium_cust

# Calculate total sales by LIFESTAGE and PREMIUM_CUSTOMER
sales_by_segment <- combinedData %>%
  group_by(lifestage, premium_customer) %>%
  summarise(total_sales = sum(tot_sales, na.rm = TRUE)) %>%
  ungroup()

`summarise()` has grouped output by 'lifestage'. You can override using the
`.groups` argument.

# Check the result
print(sales_by_segment)

# A tibble: 21 × 3
   lifestage              premium_customer total_sales
   <chr>                  <chr>                  <dbl>
 1 MIDAGE SINGLES/COUPLES Budget                33346.
 2 MIDAGE SINGLES/COUPLES Mainstream            84734.
 3 MIDAGE SINGLES/COUPLES Premium               54444.
 4 NEW FAMILIES           Budget                20607.
 5 NEW FAMILIES           Mainstream            15980.
 6 NEW FAMILIES           Premium               10761.
 7 OLDER FAMILIES         Budget               156864.
 8 OLDER FAMILIES         Mainstream            96414.
 9 OLDER FAMILIES         Premium               75243.
10 OLDER SINGLES/COUPLES  Budget               127834.
# ℹ 11 more rows
…
# Calculate customers by LIFESTAGE and PREMIUM_CUSTOMER
# Count unique customers by lifestage and premium_customer
customers <- combinedData %>%
  group_by(lifestage, premium_customer) %>%
  summarise(customers = n_distinct(lylty_card_nbr)) %>%
  ungroup()

`summarise()` has grouped output by 'lifestage'. You can override using the
`.groups` argument.

# Check the result
print(customers)

# A tibble: 21 × 3
   lifestage              premium_customer customers
   <chr>                  <chr>                <int>
 1 MIDAGE SINGLES/COUPLES Budget                1474
 2 MIDAGE SINGLES/COUPLES Mainstream            3298
 3 MIDAGE SINGLES/COUPLES Premium               2369
 4 NEW FAMILIES           Budget                1087
 5 NEW FAMILIES           Mainstream             830
 6 NEW FAMILIES           Premium                575
 7 OLDER FAMILIES         Budget                4611
 8 OLDER FAMILIES         Mainstream            2788
 9 OLDER FAMILIES         Premium               2231
10 OLDER SINGLES/COUPLES  Budget                4849
# ℹ 11 more rows
…
avg_units_per_cust <- combinedData %>%
  group_by(lifestage, premium_customer) %>%
  summarise(
    tot_units = sum(prod_qty),
    tot_cust = n_distinct(lylty_card_nbr),
    avg_units = tot_units / tot_cust
  )%>%
  ungroup()

`summarise()` has grouped output by 'lifestage'. You can override using the
`.groups` argument.

print(avg_units_per_cust)

# A tibble: 21 × 5
   lifestage              premium_customer tot_units tot_cust avg_units
   <chr>                  <chr>                <dbl>    <int>     <dbl>
 1 MIDAGE SINGLES/COUPLES Budget                8883     1474      6.03
 2 MIDAGE SINGLES/COUPLES Mainstream           21213     3298      6.43
 3 MIDAGE SINGLES/COUPLES Premium              14400     2369      6.08
 4 NEW FAMILIES           Budget                5241     1087      4.82
 5 NEW FAMILIES           Mainstream            4060      830      4.89
 6 NEW FAMILIES           Premium               2769      575      4.82
 7 OLDER FAMILIES         Budget               41853     4611      9.08
 8 OLDER FAMILIES         Mainstream           25804     2788      9.26
 9 OLDER FAMILIES         Premium              20239     2231      9.07
10 OLDER SINGLES/COUPLES  Budget               32883     4849      6.78
# ℹ 11 more rows
…
avg_price_per_unit <- combinedData %>%
  group_by(lifestage, premium_customer) %>%
  summarise(
    sales = sum(tot_sales),
    tot_units = sum(prod_qty),
    avg_price = sales / tot_units
  )%>%
  ungroup()

`summarise()` has grouped output by 'lifestage'. You can override using the
`.groups` argument.

print(avg_price_per_unit)

# A tibble: 21 × 5
   lifestage              premium_customer   sales tot_units avg_price
   <chr>                  <chr>              <dbl>     <dbl>     <dbl>
 1 MIDAGE SINGLES/COUPLES Budget            33346.      8883      3.75
 2 MIDAGE SINGLES/COUPLES Mainstream        84734.     21213      3.99
 3 MIDAGE SINGLES/COUPLES Premium           54444.     14400      3.78
 4 NEW FAMILIES           Budget            20607.      5241      3.93
 5 NEW FAMILIES           Mainstream        15980.      4060      3.94
 6 NEW FAMILIES           Premium           10761.      2769      3.89
 7 OLDER FAMILIES         Budget           156864.     41853      3.75
 8 OLDER FAMILIES         Mainstream        96414.     25804      3.74
 9 OLDER FAMILIES         Premium           75243.     20239      3.72
10 OLDER SINGLES/COUPLES  Budget           127834.     32883      3.89
# ℹ 11 more rows
…
# Calculate the metrics over time
measureOverTime <- combinedData %>%
  group_by(store_nbr, YEARMONTH) %>%
  summarise(
    totSales = sum(tot_sales, na.rm = TRUE),
    nCustomers = n_distinct(lylty_card_nbr),
    nTxnPerCust = n_distinct(txn_id) / n_distinct(lylty_card_nbr),
    nChipsPerTxn = sum(prod_qty, na.rm = TRUE) / n_distinct(txn_id),
    avgPricePerUnit = sum(tot_sales, na.rm = TRUE) / sum(prod_qty, na.rm = TRUE),
    .groups = "drop"  # Ensures the output is ungrouped
  )

measureOverTime

# A tibble: 3,165 × 7
   store_nbr YEARMONTH totSales nCustomers nTxnPerCust nChipsPerTxn
       <dbl>     <dbl>    <dbl>      <int>       <dbl>        <dbl>
 1         1    201807     189.         47        1.04         1.18
 2         1    201808     168.         41        1            1.27
 3         1    201809     268.         57        1.04         1.20
 4         1    201810     175.         39        1.03         1.27
 5         1    201811     185.         44        1.02         1.22
 6         1    201812     161.         37        1.08         1.2 
 7         1    201901     150.         35        1            1.17
 8         1    201902     195.         49        1.04         1.14
 9         1    201903     185.         43        1.09         1.19
10         1    201904     177.         39        1.03         1.3 
# ℹ 3,155 more rows
# ℹ 1 more variable: avgPricePerUnit <dbl>
# Extracting stores that have 12 observations
storesWithFullObs <- measureOverTime %>%
  group_by(store_nbr) %>%
  summarise(N = n(), .groups = "drop") %>%
  filter(N == 12) %>% #extracting stores that have 12 obs
  pull(store_nbr)  # Extracting the store numbers as a vector

# Filtering for the pre-trial period for those stores
preTrialMeasures <- measureOverTime %>%
  filter(YEARMONTH < 201902 & store_nbr %in% storesWithFullObs) 

# Printing the result
print(preTrialMeasures)

# A tibble: 1,813 × 7
   store_nbr YEARMONTH totSales nCustomers nTxnPerCust nChipsPerTxn
       <dbl>     <dbl>    <dbl>      <int>       <dbl>        <dbl>
 1         1    201807     189.         47        1.04         1.18
 2         1    201808     168.         41        1            1.27
 3         1    201809     268.         57        1.04         1.20
 4         1    201810     175.         39        1.03         1.27
 5         1    201811     185.         44        1.02         1.22
 6         1    201812     161.         37        1.08         1.2 
 7         1    201901     150.         35        1            1.17
 8         2    201807     140.         36        1.06         1.13
 9         2    201808     181.         35        1.11         1.28
10         2    201809     134.         32        1.03         1.09
# ℹ 1,803 more rows
# ℹ 1 more variable: avgPricePerUnit <dbl>
…
# Set the trial store
trial_store <- 77

# Calculate magnitude distance for `totSales` and `nCustomers`
magnitude_nSales <- calculateMagnitudeDistance(preTrialMeasures, "totSales", trial_store)
magnitude_nCustomers <- calculateMagnitudeDistance(preTrialMeasures, "nCustomers", trial_store)

# Calculate correlation for `totSales` and `nCustomers`
corr_nSales <- calculateCorrelation(preTrialMeasures, "totSales", trial_store)
corr_nCustomers <- calculateCorrelation(preTrialMeasures, "nCustomers", trial_store)

magnitude_nCustomers

# A tibble: 259 × 3
   Store1 Store2 mag_measure
    <dbl>  <dbl>       <dbl>
 1     77      1       0.939
 2     77      2       0.909
 3     77      3       0.343
 4     77      4       0.202
 5     77      5       0.514
 6     77      6       0.925
 7     77      7       0.355
 8     77      8       0.926
 9     77      9       0.880
10     77     10       0.417
# ℹ 249 more rows
…
pastSales

# A tibble: 2,110 × 9
   store_nbr YEARMONTH totSales nCustomers nTxnPerCust nChipsPerTxn
       <dbl>     <dbl>    <dbl>      <int>       <dbl>        <dbl>
 1         1    201807     588.         47        1.04         1.18
 2         1    201808     563.         41        1            1.27
 3         1    201809     571.         57        1.04         1.20
 4         1    201810     582.         39        1.03         1.27
 5         1    201811     569.         44        1.02         1.22
 6         1    201812     597.         37        1.08         1.2 
 7         1    201901     580.         35        1            1.17
 8         1    201902     535.         49        1.04         1.14
 9         2    201807     588.         36        1.06         1.13
10         2    201808     563.         35        1.11         1.28
# ℹ 2,100 more rows
# ℹ 3 more variables: avgPricePerUnit <dbl>, Store_type <chr>,
#   TransactionMonth <date>
…
scalingFactorForControlSales

[1] 1.039752

# Apply the scaling factor to the control store sales
measureOverTimeSales <- measureOverTime %>%
  mutate(controlSales = ifelse(store_nbr == control_store, totSales * scalingFactorForControlSales, totSales))

measureOverTimeSales

# A tibble: 3,165 × 8
   store_nbr YEARMONTH totSales nCustomers nTxnPerCust nChipsPerTxn
       <dbl>     <dbl>    <dbl>      <int>       <dbl>        <dbl>
 1         1    201807     189.         47        1.04         1.18
 2         1    201808     168.         41        1            1.27
 3         1    201809     268.         57        1.04         1.20
 4         1    201810     175.         39        1.03         1.27
 5         1    201811     185.         44        1.02         1.22
 6         1    201812     161.         37        1.08         1.2 
 7         1    201901     150.         35        1            1.17
 8         1    201902     195.         49        1.04         1.14
 9         1    201903     185.         43        1.09         1.19
10         1    201904     177.         39        1.03         1.3 
# ℹ 3,155 more rows
# ℹ 2 more variables: avgPricePerUnit <dbl>, controlSales <dbl>
…
scalingFactorForControlCustomers

[1] 1.021739

# Apply the scaling factor to the control store customers
measureOverTimeCustomers <- measureOverTime %>%
  mutate(controlCustomers = ifelse(store_nbr == control_store, nCustomers * scalingFactorForControlCustomers, nCustomers))

measureOverTimeCustomers

# A tibble: 3,165 × 8
   store_nbr YEARMONTH totSales nCustomers nTxnPerCust nChipsPerTxn
       <dbl>     <dbl>    <dbl>      <int>       <dbl>        <dbl>
 1         1    201807     189.         47        1.04         1.18
 2         1    201808     168.         41        1            1.27
 3         1    201809     268.         57        1.04         1.20
 4         1    201810     175.         39        1.03         1.27
 5         1    201811     185.         44        1.02         1.22
 6         1    201812     161.         37        1.08         1.2 
 7         1    201901     150.         35        1            1.17
 8         1    201902     195.         49        1.04         1.14
 9         1    201903     185.         43        1.09         1.19
10         1    201904     177.         39        1.03         1.3 
# ℹ 3,155 more rows
# ℹ 2 more variables: avgPricePerUnit <dbl>, controlCustomers <dbl>
…
pastSales

# A tibble: 2,110 × 9
   store_nbr YEARMONTH totSales nCustomers nTxnPerCust nChipsPerTxn
       <dbl>     <dbl>    <dbl>      <int>       <dbl>        <dbl>
 1         1    201807     583.         47        1.04         1.18
 2         1    201808     559.         41        1            1.27
 3         1    201809     566.         57        1.04         1.20
 4         1    201810     577.         39        1.03         1.27
 5         1    201811     565.         44        1.02         1.22
 6         1    201812     593.         37        1.08         1.2 
 7         1    201901     575.         35        1            1.17
 8         1    201902     530.         49        1.04         1.14
 9         2    201807     583.         36        1.06         1.13
10         2    201808     559.         35        1.11         1.28
# ℹ 2,100 more rows
# ℹ 3 more variables: avgPricePerUnit <dbl>, Store_type <chr>,
#   TransactionMonth <date>
…
scalingFactorForControlSales

[1] 0.9720494

# Apply the scaling factor to the control store sales
measureOverTimeSales <- measureOverTime %>%
  mutate(controlSales = ifelse(store_nbr == control_store, totSales * scalingFactorForControlSales, totSales))

measureOverTimeSales

# A tibble: 3,165 × 8
   store_nbr YEARMONTH totSales nCustomers nTxnPerCust nChipsPerTxn
       <dbl>     <dbl>    <dbl>      <int>       <dbl>        <dbl>
 1         1    201807     189.         47        1.04         1.18
 2         1    201808     168.         41        1            1.27
 3         1    201809     268.         57        1.04         1.20
 4         1    201810     175.         39        1.03         1.27
 5         1    201811     185.         44        1.02         1.22
 6         1    201812     161.         37        1.08         1.2 
 7         1    201901     150.         35        1            1.17
 8         1    201902     195.         49        1.04         1.14
 9         1    201903     185.         43        1.09         1.19
10         1    201904     177.         39        1.03         1.3 
# ℹ 3,155 more rows
# ℹ 2 more variables: avgPricePerUnit <dbl>, controlSales <dbl>
…
